^C:\USERS\USER\SOURCE\REPOS\PROJECT3\GENERATED\HELLOREPLY.GRPC.PB.CC|C:\USERS\USER\SOURCE\REPOS\PROJECT3\GENERATED\HELLOREPLY.PB.CC|C:\USERS\USER\SOURCE\REPOS\PROJECT3\GENERATED\HELLOREQUEST.GRPC.PB.CC|C:\USERS\USER\SOURCE\REPOS\PROJECT3\GENERATED\HELLOREQUEST.PB.CC|C:\USERS\USER\SOURCE\REPOS\PROJECT3\GENERATED\MESSAGE.GRPC.PB.CC|C:\USERS\USER\SOURCE\REPOS\PROJECT3\GENERATED\MESSAGE.PB.CC
C:\USERS\USER\SOURCE\REPOS\PROJECT3\PROJECT3\DEBUG\GENERATED.PDB
C:\USERS\USER\SOURCE\REPOS\PROJECT3\PROJECT3\DEBUG\GENERATED.IDB
C:\USERS\USER\SOURCE\REPOS\PROJECT3\PROJECT3\DEBUG\MESSAGE.PB.OBJ
C:\USERS\USER\SOURCE\REPOS\PROJECT3\PROJECT3\DEBUG\MESSAGE.GRPC.PB.OBJ
C:\USERS\USER\SOURCE\REPOS\PROJECT3\PROJECT3\DEBUG\HELLOREQUEST.PB.OBJ
C:\USERS\USER\SOURCE\REPOS\PROJECT3\PROJECT3\DEBUG\HELLOREQUEST.GRPC.PB.OBJ
C:\USERS\USER\SOURCE\REPOS\PROJECT3\PROJECT3\DEBUG\HELLOREPLY.PB.OBJ
C:\USERS\USER\SOURCE\REPOS\PROJECT3\PROJECT3\DEBUG\HELLOREPLY.GRPC.PB.OBJ
^C:\USERS\USER\SOURCE\REPOS\PROJECT3\GENERATED\DATE.GRPC.PB.CC|C:\USERS\USER\SOURCE\REPOS\PROJECT3\GENERATED\DATE.PB.CC|C:\USERS\USER\SOURCE\REPOS\PROJECT3\GENERATED\SERVERREPLY.GRPC.PB.CC|C:\USERS\USER\SOURCE\REPOS\PROJECT3\GENERATED\SERVERREPLY.PB.CC|C:\USERS\USER\SOURCE\REPOS\PROJECT3\GENERATED\SIGN.GRPC.PB.CC|C:\USERS\USER\SOURCE\REPOS\PROJECT3\GENERATED\SIGN.PB.CC
C:\USERS\USER\SOURCE\REPOS\PROJECT3\PROJECT3\DEBUG\GENERATED.PDB
C:\USERS\USER\SOURCE\REPOS\PROJECT3\PROJECT3\DEBUG\GENERATED.IDB
C:\USERS\USER\SOURCE\REPOS\PROJECT3\PROJECT3\DEBUG\SIGN.PB.OBJ
C:\USERS\USER\SOURCE\REPOS\PROJECT3\PROJECT3\DEBUG\SIGN.GRPC.PB.OBJ
C:\USERS\USER\SOURCE\REPOS\PROJECT3\PROJECT3\DEBUG\SERVERREPLY.PB.OBJ
C:\USERS\USER\SOURCE\REPOS\PROJECT3\PROJECT3\DEBUG\SERVERREPLY.GRPC.PB.OBJ
C:\USERS\USER\SOURCE\REPOS\PROJECT3\PROJECT3\DEBUG\DATE.PB.OBJ
C:\USERS\USER\SOURCE\REPOS\PROJECT3\PROJECT3\DEBUG\DATE.GRPC.PB.OBJ
^C:\USERS\USER\SOURCE\REPOS\PROJECT3\GENERATED\DATE.GRPC.PB.CC
C:\USERS\USER\SOURCE\REPOS\PROJECT3\PROJECT3\DEBUG\GENERATED.PDB
^C:\USERS\USER\SOURCE\REPOS\PROJECT3\GENERATED\DATE.PB.CC
C:\USERS\USER\SOURCE\REPOS\PROJECT3\PROJECT3\DEBUG\GENERATED.PDB
^C:\USERS\USER\SOURCE\REPOS\PROJECT3\GENERATED\SERVERREPLY.GRPC.PB.CC
C:\USERS\USER\SOURCE\REPOS\PROJECT3\PROJECT3\DEBUG\GENERATED.PDB
^C:\USERS\USER\SOURCE\REPOS\PROJECT3\GENERATED\SERVERREPLY.PB.CC
C:\USERS\USER\SOURCE\REPOS\PROJECT3\PROJECT3\DEBUG\GENERATED.PDB
^C:\USERS\USER\SOURCE\REPOS\PROJECT3\GENERATED\SIGN.GRPC.PB.CC
C:\USERS\USER\SOURCE\REPOS\PROJECT3\PROJECT3\DEBUG\GENERATED.PDB
^C:\USERS\USER\SOURCE\REPOS\PROJECT3\GENERATED\SIGN.PB.CC
C:\USERS\USER\SOURCE\REPOS\PROJECT3\PROJECT3\DEBUG\GENERATED.PDB
