^C:\USERS\USER\SOURCE\REPOS\PROJECT3\PROJECT3\DEBUG\DIVISIONOPERATION.GRPC.PB.OBJ|C:\USERS\USER\SOURCE\REPOS\PROJECT3\PROJECT3\DEBUG\DIVISIONOPERATION.PB.OBJ|C:\USERS\USER\SOURCE\REPOS\PROJECT3\PROJECT3\DEBUG\DIVISIONREQUEST.GRPC.PB.OBJ|C:\USERS\USER\SOURCE\REPOS\PROJECT3\PROJECT3\DEBUG\DIVISIONREQUEST.PB.OBJ|C:\USERS\USER\SOURCE\REPOS\PROJECT3\PROJECT3\DEBUG\MULTIPLICATIONOPERATION.GRPC.PB.OBJ|C:\USERS\USER\SOURCE\REPOS\PROJECT3\PROJECT3\DEBUG\MULTIPLICATIONOPERATION.PB.OBJ|C:\USERS\USER\SOURCE\REPOS\PROJECT3\PROJECT3\DEBUG\MULTIPLICATIONREQUEST.GRPC.PB.OBJ|C:\USERS\USER\SOURCE\REPOS\PROJECT3\PROJECT3\DEBUG\MULTIPLICATIONREQUEST.PB.OBJ|C:\USERS\USER\SOURCE\REPOS\PROJECT3\PROJECT3\DEBUG\OPERATIONRESPONSE.GRPC.PB.OBJ|C:\USERS\USER\SOURCE\REPOS\PROJECT3\PROJECT3\DEBUG\OPERATIONRESPONSE.PB.OBJ|C:\USERS\USER\SOURCE\REPOS\PROJECT3\PROJECT3\DEBUG\SUBTRACTIONOPERATION.GRPC.PB.OBJ|C:\USERS\USER\SOURCE\REPOS\PROJECT3\PROJECT3\DEBUG\SUBTRACTIONOPERATION.PB.OBJ|C:\USERS\USER\SOURCE\REPOS\PROJECT3\PROJECT3\DEBUG\SUBTRACTIONREQUEST.GRPC.PB.OBJ|C:\USERS\USER\SOURCE\REPOS\PROJECT3\PROJECT3\DEBUG\SUBTRACTIONREQUEST.PB.OBJ|C:\USERS\USER\SOURCE\REPOS\PROJECT3\PROJECT3\DEBUG\SUMOPERATION.GRPC.PB.OBJ|C:\USERS\USER\SOURCE\REPOS\PROJECT3\PROJECT3\DEBUG\SUMOPERATION.PB.OBJ|C:\USERS\USER\SOURCE\REPOS\PROJECT3\PROJECT3\DEBUG\SUMREQUEST.GRPC.PB.OBJ|C:\USERS\USER\SOURCE\REPOS\PROJECT3\PROJECT3\DEBUG\SUMREQUEST.PB.OBJ
C:\USERS\USER\DESKTOP\VCPKG-MASTER\INSTALLED\X86-WINDOWS\DEBUG\LIB\LIBPROTOBUFD.LIB
C:\WINDOWS\SYSTEM32\TZRES.DLL
C:\USERS\USER\DESKTOP\VCPKG-MASTER\INSTALLED\X86-WINDOWS\DEBUG\LIB\GRPC.LIB
C:\USERS\USER\SOURCE\REPOS\PROJECT3\PROJECT3\DEBUG\DIVISIONOPERATION.GRPC.PB.OBJ
C:\USERS\USER\SOURCE\REPOS\PROJECT3\PROJECT3\DEBUG\DIVISIONOPERATION.PB.OBJ
C:\USERS\USER\SOURCE\REPOS\PROJECT3\PROJECT3\DEBUG\DIVISIONREQUEST.GRPC.PB.OBJ
C:\USERS\USER\SOURCE\REPOS\PROJECT3\PROJECT3\DEBUG\DIVISIONREQUEST.PB.OBJ
C:\USERS\USER\SOURCE\REPOS\PROJECT3\PROJECT3\DEBUG\MULTIPLICATIONOPERATION.GRPC.PB.OBJ
C:\USERS\USER\SOURCE\REPOS\PROJECT3\PROJECT3\DEBUG\MULTIPLICATIONOPERATION.PB.OBJ
C:\USERS\USER\SOURCE\REPOS\PROJECT3\PROJECT3\DEBUG\MULTIPLICATIONREQUEST.GRPC.PB.OBJ
C:\USERS\USER\SOURCE\REPOS\PROJECT3\PROJECT3\DEBUG\MULTIPLICATIONREQUEST.PB.OBJ
C:\USERS\USER\SOURCE\REPOS\PROJECT3\PROJECT3\DEBUG\OPERATIONRESPONSE.GRPC.PB.OBJ
C:\USERS\USER\SOURCE\REPOS\PROJECT3\PROJECT3\DEBUG\OPERATIONRESPONSE.PB.OBJ
C:\USERS\USER\SOURCE\REPOS\PROJECT3\PROJECT3\DEBUG\SUBTRACTIONOPERATION.GRPC.PB.OBJ
C:\USERS\USER\SOURCE\REPOS\PROJECT3\PROJECT3\DEBUG\SUBTRACTIONOPERATION.PB.OBJ
C:\USERS\USER\SOURCE\REPOS\PROJECT3\PROJECT3\DEBUG\SUBTRACTIONREQUEST.GRPC.PB.OBJ
C:\USERS\USER\SOURCE\REPOS\PROJECT3\PROJECT3\DEBUG\SUBTRACTIONREQUEST.PB.OBJ
C:\USERS\USER\SOURCE\REPOS\PROJECT3\PROJECT3\DEBUG\SUMOPERATION.GRPC.PB.OBJ
C:\USERS\USER\SOURCE\REPOS\PROJECT3\PROJECT3\DEBUG\SUMOPERATION.PB.OBJ
C:\USERS\USER\SOURCE\REPOS\PROJECT3\PROJECT3\DEBUG\SUMREQUEST.GRPC.PB.OBJ
C:\USERS\USER\SOURCE\REPOS\PROJECT3\PROJECT3\DEBUG\SUMREQUEST.PB.OBJ
C:\WINDOWS\GLOBALIZATION\SORTING\SORTDEFAULT.NLS
