^C:\USERS\USER\SOURCE\REPOS\PROJECT3\PROJECT3\DEBUG\DIVISIONOPERATION.GRPC.PB.OBJ|C:\USERS\USER\SOURCE\REPOS\PROJECT3\PROJECT3\DEBUG\DIVISIONOPERATION.PB.OBJ|C:\USERS\USER\SOURCE\REPOS\PROJECT3\PROJECT3\DEBUG\DIVISIONREQUEST.GRPC.PB.OBJ|C:\USERS\USER\SOURCE\REPOS\PROJECT3\PROJECT3\DEBUG\DIVISIONREQUEST.PB.OBJ|C:\USERS\USER\SOURCE\REPOS\PROJECT3\PROJECT3\DEBUG\MULTIPLICATIONOPERATION.GRPC.PB.OBJ|C:\USERS\USER\SOURCE\REPOS\PROJECT3\PROJECT3\DEBUG\MULTIPLICATIONOPERATION.PB.OBJ|C:\USERS\USER\SOURCE\REPOS\PROJECT3\PROJECT3\DEBUG\MULTIPLICATIONREQUEST.GRPC.PB.OBJ|C:\USERS\USER\SOURCE\REPOS\PROJECT3\PROJECT3\DEBUG\MULTIPLICATIONREQUEST.PB.OBJ|C:\USERS\USER\SOURCE\REPOS\PROJECT3\PROJECT3\DEBUG\OPERATIONRESPONSE.GRPC.PB.OBJ|C:\USERS\USER\SOURCE\REPOS\PROJECT3\PROJECT3\DEBUG\OPERATIONRESPONSE.PB.OBJ|C:\USERS\USER\SOURCE\REPOS\PROJECT3\PROJECT3\DEBUG\SUBTRACTIONOPERATION.GRPC.PB.OBJ|C:\USERS\USER\SOURCE\REPOS\PROJECT3\PROJECT3\DEBUG\SUBTRACTIONOPERATION.PB.OBJ|C:\USERS\USER\SOURCE\REPOS\PROJECT3\PROJECT3\DEBUG\SUBTRACTIONREQUEST.GRPC.PB.OBJ|C:\USERS\USER\SOURCE\REPOS\PROJECT3\PROJECT3\DEBUG\SUBTRACTIONREQUEST.PB.OBJ|C:\USERS\USER\SOURCE\REPOS\PROJECT3\PROJECT3\DEBUG\SUMOPERATION.GRPC.PB.OBJ|C:\USERS\USER\SOURCE\REPOS\PROJECT3\PROJECT3\DEBUG\SUMOPERATION.PB.OBJ|C:\USERS\USER\SOURCE\REPOS\PROJECT3\PROJECT3\DEBUG\SUMREQUEST.GRPC.PB.OBJ|C:\USERS\USER\SOURCE\REPOS\PROJECT3\PROJECT3\DEBUG\SUMREQUEST.PB.OBJ
/OUT:"C:\USERS\USER\SOURCE\REPOS\PROJECT3\DEBUG\PROJECT3.LIB" LIBPROTOBUFD.LIB GRPC.LIB /LIBPATH:"C:\USERS\USER\DESKTOP\VCPKG-MASTER\INSTALLED\X86-WINDOWS\DEBUG\LIB" /NOLOGO /MACHINE:X86 DEBUG\DIVISIONOPERATION.GRPC.PB.OBJ
DEBUG\DIVISIONOPERATION.PB.OBJ
DEBUG\DIVISIONREQUEST.GRPC.PB.OBJ
DEBUG\DIVISIONREQUEST.PB.OBJ
DEBUG\MULTIPLICATIONOPERATION.GRPC.PB.OBJ
DEBUG\MULTIPLICATIONOPERATION.PB.OBJ
DEBUG\MULTIPLICATIONREQUEST.GRPC.PB.OBJ
DEBUG\MULTIPLICATIONREQUEST.PB.OBJ
DEBUG\OPERATIONRESPONSE.GRPC.PB.OBJ
DEBUG\OPERATIONRESPONSE.PB.OBJ
DEBUG\SUBTRACTIONOPERATION.GRPC.PB.OBJ
DEBUG\SUBTRACTIONOPERATION.PB.OBJ
DEBUG\SUBTRACTIONREQUEST.GRPC.PB.OBJ
DEBUG\SUBTRACTIONREQUEST.PB.OBJ
DEBUG\SUMOPERATION.GRPC.PB.OBJ
DEBUG\SUMOPERATION.PB.OBJ
DEBUG\SUMREQUEST.GRPC.PB.OBJ
DEBUG\SUMREQUEST.PB.OBJ
